ФИ,Группа,Ссылка на MR,Баллы,student_id
Ковалев Илья,23137,https://gitlab.com/nsu3170609/Kovalev_Ilya_python2023/-/merge_requests/3,,1
Борисова Мария,23137,Practice2 (!2) · Merge requests · masha_B / python · GitLab,,2
Данилин Денис,23137,https://gitlab.com/repos154309/danilin_denis_python2023/-/merge_requests/2,,3
Дьячук Савелий,23137,https://gitlab.com/Sawel54/python_mmf_ds/-/merge_requests/2,,4
Монгуш Алдын-Сай,23137,https://gitlab.com/aldynsai1/mongush_aldyn-sai_python2023/-/merge_requests/4?commit_id=c3513a1477364840e71a8299bc4e717a6e1afb26,,5
Вольхин Богдан,23137,https://gitlab.com/volhinbogdan1/python-mmf/-/merge_requests/3,,6
Хантаков Егор,23137,https://gitlab.com/khantakov/khantakov_egor_python2024/-/merge_requests/2,,7
Валиева София,23137,https://gitlab.com/231441/sonya_valieva_python2023_2024/-/merge_requests/2,,8
Мурзина Елизавета,23137,https://gitlab.com/UnknowHacker95/murzina_elizaveta_python2023/-/merge_requests/2,,9
Волкова Варвара,23137,https://github.com/Barbie15/Python-HW/pull/4#issue-2202468132,,10
Тен Артём,23137,https://gitlab.com/iuhih/ten_artem_python2023/-/merge_requests/2,,11
Григорьев Всеволод,23144,Hw02 (!3) · Merge requests · Me / MyProject · GitLab,,12
Поляков Сергей,23144,https://github.com/TomFord71/Python-2-semester-23144/pull/2,,13